[
  {
    "file": "test_logging.ml",
    "title": "alpha: comb-get",
    "tags": [
      "regression",
      "protocol",
      "regression",
      "logging"
    ],
    "successful_runs": {
      "total_time": "31328",
      "count": "1"
    },
    "failed_runs": {
      "total_time": "0",
      "count": "0"
    }
  },
  {
    "file": "test_logging.ml",
    "title": "alpha: faucet",
    "tags": [
      "regression",
      "protocol",
      "regression",
      "logging"
    ],
    "successful_runs": {
      "total_time": "32853",
      "count": "1"
    },
    "failed_runs": {
      "total_time": "0",
      "count": "0"
    }
  },
  {
    "file": "test_logging.ml",
    "title": "alpha: reverse_loop",
    "tags": [
      "regression",
      "protocol",
      "regression",
      "logging"
    ],
    "successful_runs": {
      "total_time": "33467",
      "count": "1"
    },
    "failed_runs": {
      "total_time": "0",
      "count": "0"
    }
  },
  {
    "file": "test_logging.ml",
    "title": "014_PtKathma: accounts",
    "tags": [
      "regression",
      "protocol",
      "regression",
      "logging"
    ],
    "successful_runs": {
      "total_time": "36189",
      "count": "1"
    },
    "failed_runs": {
      "total_time": "0",
      "count": "0"
    }
  },
  {
    "file": "test_logging.ml",
    "title": "014_PtKathma: big_map_union",
    "tags": [
      "regression",
      "protocol",
      "regression",
      "logging"
    ],
    "successful_runs": {
      "total_time": "42046",
      "count": "1"
    },
    "failed_runs": {
      "total_time": "0",
      "count": "0"
    }
  },
  {
    "file": "test_logging.ml",
    "title": "014_PtKathma: dugn",
    "tags": [
      "regression",
      "protocol",
      "regression",
      "logging"
    ],
    "successful_runs": {
      "total_time": "21779",
      "count": "1"
    },
    "failed_runs": {
      "total_time": "0",
      "count": "0"
    }
  },
  {
    "file": "test_logging.ml",
    "title": "014_PtKathma: packunpack",
    "tags": [
      "regression",
      "protocol",
      "regression",
      "logging"
    ],
    "successful_runs": {
      "total_time": "17594",
      "count": "1"
    },
    "failed_runs": {
      "total_time": "0",
      "count": "0"
    }
  },
  {
    "file": "test_logging.ml",
    "title": "014_PtKathma: xor",
    "tags": [
      "regression",
      "protocol",
      "regression",
      "logging"
    ],
    "successful_runs": {
      "total_time": "16666",
      "count": "1"
    },
    "failed_runs": {
      "total_time": "0",
      "count": "0"
    }
  },
  {
    "file": "client_commands.ml",
    "title": "Jakarta: Simulation of failing operation with force",
    "tags": [
      "jakarta",
      "client",
      "simulation",
      "failing",
      "force"
    ],
    "successful_runs": {
      "total_time": "10579649",
      "count": "1"
    },
    "failed_runs": {
      "total_time": "0",
      "count": "0"
    }
  },
  {
    "file": "client_commands.ml",
    "title": "Ithaca: Transfer to public key hash alias",
    "tags": [
      "ithaca",
      "client",
      "alias",
      "transfer"
    ],
    "successful_runs": {
      "total_time": "17455641",
      "count": "1"
    },
    "failed_runs": {
      "total_time": "0",
      "count": "0"
    }
  },
  {
    "file": "bootstrap.ml",
    "title": "Alpha: node synchronization (full / rolling)",
    "tags": [
      "alpha",
      "bootstrap",
      "node",
      "sync",
      "activate",
      "bake",
      "primary_full",
      "secondary_rolling"
    ],
    "successful_runs": {
      "total_time": "53708935",
      "count": "1"
    },
    "failed_runs": {
      "total_time": "0",
      "count": "0"
    }
  },
  {
    "file": "hash_data.ml",
    "title": "Alpha: hash data ... of type ... (ugly)",
    "tags": [
      "alpha",
      "hash",
      "data",
      "mockup"
    ],
    "successful_runs": {
      "total_time": "5542175",
      "count": "1"
    },
    "failed_runs": {
      "total_time": "0",
      "count": "0"
    }
  },
  {
    "file": "double_bake.ml",
    "title": "Alpha: double baking with accuser",
    "tags": [
      "alpha",
      "double",
      "baking",
      "accuser",
      "node"
    ],
    "successful_runs": {
      "total_time": "33540467",
      "count": "1"
    },
    "failed_runs": {
      "total_time": "0",
      "count": "0"
    }
  },
  {
    "file": "light.ml",
    "title": "Alpha: (Light) bake",
    "tags": [
      "alpha",
      "light",
      "client",
      "bake"
    ],
    "successful_runs": {
      "total_time": "14078927",
      "count": "1"
    },
    "failed_runs": {
      "total_time": "0",
      "count": "0"
    }
  },
  {
    "file": "mockup.ml",
    "title": "Alpha: (Mockup) RPC list",
    "tags": [
      "alpha",
      "mockup",
      "client",
      "rpc"
    ],
    "successful_runs": {
      "total_time": "314830463",
      "count": "1"
    },
    "failed_runs": {
      "total_time": "0",
      "count": "0"
    }
  },
  {
    "file": "mockup.ml",
    "title": "Jakarta: (Mockup) Transfer (asynchronous)",
    "tags": [
      "jakarta",
      "mockup",
      "client",
      "transfer",
      "asynchronous"
    ],
    "successful_runs": {
      "total_time": "3316255",
      "count": "1"
    },
    "failed_runs": {
      "total_time": "0",
      "count": "0"
    }
  },
  {
    "file": "mockup.ml",
    "title": "Kathmandu: (Mockup) Multi transfer/multi baking (asynchronous)",
    "tags": [
      "kathmandu",
      "mockup",
      "client",
      "transfer",
      "asynchronous"
    ],
    "successful_runs": {
      "total_time": "58918236",
      "count": "1"
    },
    "failed_runs": {
      "total_time": "0",
      "count": "0"
    }
  },
  {
    "file": "mockup.ml",
    "title": "Ithaca: (Mockup) RPC header/shell",
    "tags": [
      "ithaca",
      "mockup",
      "client",
      "rpc"
    ],
    "successful_runs": {
      "total_time": "2286195",
      "count": "1"
    },
    "failed_runs": {
      "total_time": "0",
      "count": "0"
    }
  },
  {
    "file": "mockup.ml",
    "title": "Jakarta: (Mockup) origination fees from unrevealed",
    "tags": [
      "jakarta",
      "mockup",
      "client",
      "transfer"
    ],
    "successful_runs": {
      "total_time": "4559462",
      "count": "1"
    },
    "failed_runs": {
      "total_time": "0",
      "count": "0"
    }
  },
  {
    "file": "mockup.ml",
    "title": "Kathmandu: (Mockup) origination fees from unrevealed",
    "tags": [
      "kathmandu",
      "mockup",
      "client",
      "transfer"
    ],
    "successful_runs": {
      "total_time": "4620100",
      "count": "1"
    },
    "failed_runs": {
      "total_time": "0",
      "count": "0"
    }
  },
  {
    "file": "proxy.ml",
    "title": "Alpha: (Proxy) (/chains/main/blocks/head/helpers/baking_rights) No useless RPC call",
    "tags": [
      "alpha",
      "proxy",
      "rpc",
      "get"
    ],
    "successful_runs": {
      "total_time": "8230420",
      "count": "1"
    },
    "failed_runs": {
      "total_time": "0",
      "count": "0"
    }
  },
  {
    "file": "proxy.ml",
    "title": "Alpha: (Proxy) (/chains/main/blocks/head/helpers/baking_rights?all=true) No useless RPC call",
    "tags": [
      "alpha",
      "proxy",
      "rpc",
      "get"
    ],
    "successful_runs": {
      "total_time": "7754338",
      "count": "1"
    },
    "failed_runs": {
      "total_time": "0",
      "count": "0"
    }
  },
  {
    "file": "proxy.ml",
    "title": "Alpha: (Proxy) (/chains/main/blocks/head/context/nonces/3) No useless RPC call",
    "tags": [
      "alpha",
      "proxy",
      "rpc",
      "get"
    ],
    "successful_runs": {
      "total_time": "7789850",
      "count": "1"
    },
    "failed_runs": {
      "total_time": "0",
      "count": "0"
    }
  },
  {
    "file": "proxy.ml",
    "title": "Kathmandu: (Proxy) (/chains/main/blocks/head/helpers/baking_rights) No useless RPC call",
    "tags": [
      "kathmandu",
      "proxy",
      "rpc",
      "get"
    ],
    "successful_runs": {
      "total_time": "7842946",
      "count": "1"
    },
    "failed_runs": {
      "total_time": "0",
      "count": "0"
    }
  },
  {
    "file": "proxy.ml",
    "title": "Kathmandu: (Proxy) (/chains/main/blocks/head/votes/listings) No useless RPC call",
    "tags": [
      "kathmandu",
      "proxy",
      "rpc",
      "get"
    ],
    "successful_runs": {
      "total_time": "7947773",
      "count": "1"
    },
    "failed_runs": {
      "total_time": "0",
      "count": "0"
    }
  },
  {
    "file": "proxy.ml",
    "title": "Jakarta: (Proxy) (/chains/main/blocks/head/helpers/baking_rights) No useless RPC call",
    "tags": [
      "jakarta",
      "proxy",
      "rpc",
      "get"
    ],
    "successful_runs": {
      "total_time": "7847756",
      "count": "1"
    },
    "failed_runs": {
      "total_time": "0",
      "count": "0"
    }
  },
  {
    "file": "proxy.ml",
    "title": "Ithaca: (Proxy) (/chains/main/blocks/head/context/contracts) No useless RPC call",
    "tags": [
      "ithaca",
      "proxy",
      "rpc",
      "get"
    ],
    "successful_runs": {
      "total_time": "7937114",
      "count": "1"
    },
    "failed_runs": {
      "total_time": "0",
      "count": "0"
    }
  },
  {
    "file": "proxy.ml",
    "title": "Ithaca: (Proxy) (/chains/main/blocks/head/votes/listings) No useless RPC call",
    "tags": [
      "ithaca",
      "proxy",
      "rpc",
      "get"
    ],
    "successful_runs": {
      "total_time": "7667927",
      "count": "1"
    },
    "failed_runs": {
      "total_time": "0",
      "count": "0"
    }
  },
  {
    "file": "proxy.ml",
    "title": "Alpha: (Proxy) (/chains/main/blocks/head/helpers/baking_rights) Cache at most once",
    "tags": [
      "alpha",
      "proxy",
      "rpc",
      "get"
    ],
    "successful_runs": {
      "total_time": "7878375",
      "count": "1"
    },
    "failed_runs": {
      "total_time": "0",
      "count": "0"
    }
  },
  {
    "file": "proxy.ml",
    "title": "Ithaca: (Proxy) (/chains/main/blocks/head/helpers/baking_rights) Cache at most once",
    "tags": [
      "ithaca",
      "proxy",
      "rpc",
      "get"
    ],
    "successful_runs": {
      "total_time": "7661777",
      "count": "1"
    },
    "failed_runs": {
      "total_time": "0",
      "count": "0"
    }
  },
  {
    "file": "proxy.ml",
    "title": "Jakarta: (Proxy) (/chains/main/blocks/head/context/nonces/3) Cache at most once",
    "tags": [
      "jakarta",
      "proxy",
      "rpc",
      "get"
    ],
    "successful_runs": {
      "total_time": "7833991",
      "count": "1"
    },
    "failed_runs": {
      "total_time": "0",
      "count": "0"
    }
  },
  {
    "file": "proxy.ml",
    "title": "Jakarta: (Proxy) (/chains/main/blocks/head/helpers/levels_in_current_cycle) Cache at most once",
    "tags": [
      "jakarta",
      "proxy",
      "rpc",
      "get"
    ],
    "successful_runs": {
      "total_time": "7797358",
      "count": "1"
    },
    "failed_runs": {
      "total_time": "0",
      "count": "0"
    }
  },
  {
    "file": "proxy.ml",
    "title": "Ithaca: (Proxy) (/chains/main/blocks/head/votes/current_period) Cache at most once",
    "tags": [
      "ithaca",
      "proxy",
      "rpc",
      "get"
    ],
    "successful_runs": {
      "total_time": "7783427",
      "count": "1"
    },
    "failed_runs": {
      "total_time": "0",
      "count": "0"
    }
  },
  {
    "file": "proxy.ml",
    "title": "Jakarta: (Proxy) (/chains/main/blocks/head/votes/successor_period) Cache at most once",
    "tags": [
      "jakarta",
      "proxy",
      "rpc",
      "get"
    ],
    "successful_runs": {
      "total_time": "7871681",
      "count": "1"
    },
    "failed_runs": {
      "total_time": "0",
      "count": "0"
    }
  },
  {
    "file": "proxy.ml",
    "title": "Kathmandu: (Proxy) (/chains/main/blocks/head/votes/ballots) Cache at most once",
    "tags": [
      "kathmandu",
      "proxy",
      "rpc",
      "get"
    ],
    "successful_runs": {
      "total_time": "7775803",
      "count": "1"
    },
    "failed_runs": {
      "total_time": "0",
      "count": "0"
    }
  },
  {
    "file": "proxy.ml",
    "title": "Ithaca: (Proxy) (/chains/main/blocks/head/votes/proposals) Cache at most once",
    "tags": [
      "ithaca",
      "proxy",
      "rpc",
      "get"
    ],
    "successful_runs": {
      "total_time": "7901981",
      "count": "1"
    },
    "failed_runs": {
      "total_time": "0",
      "count": "0"
    }
  },
  {
    "file": "proxy.ml",
    "title": "Kathmandu: (Proxy) RPC get's location",
    "tags": [
      "kathmandu",
      "proxy",
      "location",
      "rpc",
      "get"
    ],
    "successful_runs": {
      "total_time": "10155857",
      "count": "1"
    },
    "failed_runs": {
      "total_time": "0",
      "count": "0"
    }
  },
  {
    "file": "protocol_migration.ml",
    "title": "baker forked migration blocks from jakarta to alpha",
    "tags": [
      "protocol",
      "migration",
      "baker",
      "endorsing",
      "fork",
      "flaky",
      "from_jakarta",
      "to_alpha"
    ],
    "successful_runs": {
      "total_time": "58335604",
      "count": "1"
    },
    "failed_runs": {
      "total_time": "0",
      "count": "0"
    }
  },
  {
    "file": "prevalidator.ml",
    "title": "Kathmandu: Flush mempool",
    "tags": [
      "kathmandu",
      "mempool",
      "flush"
    ],
    "successful_runs": {
      "total_time": "54038734",
      "count": "1"
    },
    "failed_runs": {
      "total_time": "0",
      "count": "0"
    }
  },
  {
    "file": "prevalidator.ml",
    "title": "Kathmandu: ban_operation_branch_delayed_reevaluated",
    "tags": [
      "kathmandu",
      "mempool",
      "ban",
      "branch_delayed"
    ],
    "successful_runs": {
      "total_time": "18942903",
      "count": "1"
    },
    "failed_runs": {
      "total_time": "0",
      "count": "0"
    }
  },
  {
    "file": "prevalidator.ml",
    "title": "Ithaca: Manager_restriction_propagation",
    "tags": [
      "ithaca",
      "mempool",
      "manager_restriction",
      "propagation"
    ],
    "successful_runs": {
      "total_time": "34321045",
      "count": "1"
    },
    "failed_runs": {
      "total_time": "0",
      "count": "0"
    }
  },
  {
    "file": "prevalidator.ml",
    "title": "Ithaca: Manager_restriction_ban",
    "tags": [
      "ithaca",
      "mempool",
      "manager_restriction",
      "ban"
    ],
    "successful_runs": {
      "total_time": "18731230",
      "count": "1"
    },
    "failed_runs": {
      "total_time": "0",
      "count": "0"
    }
  },
  {
    "file": "prevalidator.ml",
    "title": "Kathmandu: Manager_restriction_flush_on_ban",
    "tags": [
      "kathmandu",
      "mempool",
      "manager_restriction",
      "flush",
      "ban"
    ],
    "successful_runs": {
      "total_time": "24344480",
      "count": "1"
    },
    "failed_runs": {
      "total_time": "0",
      "count": "0"
    }
  },
  {
    "file": "prevalidator.ml",
    "title": "Alpha: Manager_restriction_inject_1M",
    "tags": [
      "alpha",
      "mempool",
      "manager_restriction",
      "inject"
    ],
    "successful_runs": {
      "total_time": "17199423",
      "count": "1"
    },
    "failed_runs": {
      "total_time": "0",
      "count": "0"
    }
  },
  {
    "file": "prevalidator.ml",
    "title": "Ithaca: Max refused operations refused",
    "tags": [
      "ithaca",
      "mempool",
      "refused",
      "max"
    ],
    "successful_runs": {
      "total_time": "35594520",
      "count": "1"
    },
    "failed_runs": {
      "total_time": "0",
      "count": "0"
    }
  },
  {
    "file": "prevalidator.ml",
    "title": "Ithaca: mempool ban operation",
    "tags": [
      "ithaca",
      "mempool",
      "node",
      "ban"
    ],
    "successful_runs": {
      "total_time": "40835536",
      "count": "1"
    },
    "failed_runs": {
      "total_time": "0",
      "count": "0"
    }
  },
  {
    "file": "prevalidator.ml",
    "title": "Ithaca: mempool unban all operations",
    "tags": [
      "ithaca",
      "mempool",
      "node",
      "ban"
    ],
    "successful_runs": {
      "total_time": "44519027",
      "count": "1"
    },
    "failed_runs": {
      "total_time": "0",
      "count": "0"
    }
  },
  {
    "file": "prevalidator.ml",
    "title": "Alpha: Test prefiltered limits of mempool",
    "tags": [
      "alpha",
      "mempool",
      "gc",
      "limit"
    ],
    "successful_runs": {
      "total_time": "43755800",
      "count": "1"
    },
    "failed_runs": {
      "total_time": "0",
      "count": "0"
    }
  },
  {
    "file": "prevalidator.ml",
    "title": "Alpha: Test prefiltered limits of mempool after a remove/replace",
    "tags": [
      "alpha",
      "mempool",
      "gc",
      "limit",
      "replace",
      "remove"
    ],
    "successful_runs": {
      "total_time": "37309923",
      "count": "1"
    },
    "failed_runs": {
      "total_time": "0",
      "count": "0"
    }
  },
  {
    "file": "prevalidator.ml",
    "title": "Jakarta: Test private/injection/operations RPC",
    "tags": [
      "jakarta",
      "mempool",
      "injection",
      "operations",
      "rpc"
    ],
    "successful_runs": {
      "total_time": "34907079",
      "count": "1"
    },
    "failed_runs": {
      "total_time": "0",
      "count": "0"
    }
  },
  {
    "file": "prevalidator.ml",
    "title": "Ithaca: Forge pre-filtered operation and check mempool",
    "tags": [
      "ithaca",
      "forge",
      "mempool",
      "pre_filtered"
    ],
    "successful_runs": {
      "total_time": "17829493",
      "count": "1"
    },
    "failed_runs": {
      "total_time": "0",
      "count": "0"
    }
  },
  {
    "file": "prevalidator.ml",
    "title": "Jakarta: mempool ban operation and check applied",
    "tags": [
      "jakarta",
      "mempool",
      "node"
    ],
    "successful_runs": {
      "total_time": "19271471",
      "count": "1"
    },
    "failed_runs": {
      "total_time": "0",
      "count": "0"
    }
  },
  {
    "file": "prevalidator.ml",
    "title": "Kathmandu: mempool ban operation and check applied",
    "tags": [
      "kathmandu",
      "mempool",
      "node"
    ],
    "successful_runs": {
      "total_time": "17996340",
      "count": "1"
    },
    "failed_runs": {
      "total_time": "0",
      "count": "0"
    }
  },
  {
    "file": "prevalidator.ml",
    "title": "Ithaca: Injecting old operation fails",
    "tags": [
      "ithaca",
      "mempool",
      "injection"
    ],
    "successful_runs": {
      "total_time": "14875292",
      "count": "1"
    },
    "failed_runs": {
      "total_time": "0",
      "count": "0"
    }
  },
  {
    "file": "prevalidator.ml",
    "title": "Ithaca: Test request_operations rpc",
    "tags": [
      "ithaca",
      "mempool",
      "request_operations"
    ],
    "successful_runs": {
      "total_time": "14627648",
      "count": "1"
    },
    "failed_runs": {
      "total_time": "0",
      "count": "0"
    }
  },
  {
    "file": "dal.ml",
    "title": "Alpha: Testing data availability layer functionality  (rollup_node_dal_subscriptions)",
    "tags": [
      "regression",
      "alpha",
      "dal",
      "dal",
      "rollup_node_dal_subscriptions"
    ],
    "successful_runs": {
      "total_time": "22422182",
      "count": "1"
    },
    "failed_runs": {
      "total_time": "0",
      "count": "0"
    }
  },
  {
    "file": "monitor_operations.ml",
    "title": "Alpha: Test monitor_operations RPC",
    "tags": [
      "alpha",
      "monitor",
      "operations"
    ],
    "successful_runs": {
      "total_time": "10447547",
      "count": "1"
    },
    "failed_runs": {
      "total_time": "0",
      "count": "0"
    }
  },
  {
    "file": "encoding.ml",
    "title": "Kathmandu: protocol encoding regression test: block_header.unsigned",
    "tags": [
      "regression",
      "kathmandu",
      "encoding",
      "protocol"
    ],
    "successful_runs": {
      "total_time": "2047096",
      "count": "1"
    },
    "failed_runs": {
      "total_time": "0",
      "count": "0"
    }
  },
  {
    "file": "encoding.ml",
    "title": "Jakarta: protocol encoding regression test: block_header.unsigned",
    "tags": [
      "regression",
      "jakarta",
      "encoding",
      "protocol"
    ],
    "successful_runs": {
      "total_time": "1826299",
      "count": "1"
    },
    "failed_runs": {
      "total_time": "0",
      "count": "0"
    }
  },
  {
    "file": "encoding.ml",
    "title": "Alpha: protocol encoding regression test: gas.cost",
    "tags": [
      "regression",
      "alpha",
      "encoding",
      "protocol"
    ],
    "successful_runs": {
      "total_time": "3632662",
      "count": "1"
    },
    "failed_runs": {
      "total_time": "0",
      "count": "0"
    }
  },
  {
    "file": "encoding.ml",
    "title": "Ithaca: protocol encoding regression test: gas.cost",
    "tags": [
      "regression",
      "ithaca",
      "encoding",
      "protocol"
    ],
    "successful_runs": {
      "total_time": "3622445",
      "count": "1"
    },
    "failed_runs": {
      "total_time": "0",
      "count": "0"
    }
  },
  {
    "file": "encoding.ml",
    "title": "Kathmandu: protocol encoding regression test: operation.internal",
    "tags": [
      "regression",
      "kathmandu",
      "encoding",
      "protocol"
    ],
    "successful_runs": {
      "total_time": "9218687",
      "count": "1"
    },
    "failed_runs": {
      "total_time": "0",
      "count": "0"
    }
  },
  {
    "file": "encoding.ml",
    "title": "Jakarta: protocol encoding regression test: operation.internal",
    "tags": [
      "regression",
      "jakarta",
      "encoding",
      "protocol"
    ],
    "successful_runs": {
      "total_time": "11480807",
      "count": "1"
    },
    "failed_runs": {
      "total_time": "0",
      "count": "0"
    }
  },
  {
    "file": "encoding.ml",
    "title": "Alpha: protocol encoding regression test: seed",
    "tags": [
      "regression",
      "alpha",
      "encoding",
      "protocol"
    ],
    "successful_runs": {
      "total_time": "1774663",
      "count": "1"
    },
    "failed_runs": {
      "total_time": "0",
      "count": "0"
    }
  },
  {
    "file": "encoding.ml",
    "title": "Ithaca: protocol encoding regression test: seed",
    "tags": [
      "regression",
      "ithaca",
      "encoding",
      "protocol"
    ],
    "successful_runs": {
      "total_time": "1779727",
      "count": "1"
    },
    "failed_runs": {
      "total_time": "0",
      "count": "0"
    }
  },
  {
    "file": "encoding.ml",
    "title": "Kathmandu: protocol encoding regression test: vote.ballots",
    "tags": [
      "regression",
      "kathmandu",
      "encoding",
      "protocol"
    ],
    "successful_runs": {
      "total_time": "1768268",
      "count": "1"
    },
    "failed_runs": {
      "total_time": "0",
      "count": "0"
    }
  },
  {
    "file": "encoding.ml",
    "title": "Jakarta: protocol encoding regression test: vote.ballots",
    "tags": [
      "regression",
      "jakarta",
      "encoding",
      "protocol"
    ],
    "successful_runs": {
      "total_time": "2406023",
      "count": "1"
    },
    "failed_runs": {
      "total_time": "0",
      "count": "0"
    }
  },
  {
    "file": "precheck.ml",
    "title": "Jakarta: forge fake block",
    "tags": [
      "jakarta",
      "precheck",
      "fake_block",
      "propagation"
    ],
    "successful_runs": {
      "total_time": "35176470",
      "count": "1"
    },
    "failed_runs": {
      "total_time": "0",
      "count": "0"
    }
  },
  {
    "file": "precheck.ml",
    "title": "Alpha: forge block with wrong signature",
    "tags": [
      "alpha",
      "precheck",
      "fake_block",
      "propagation",
      "signature"
    ],
    "successful_runs": {
      "total_time": "54285925",
      "count": "1"
    },
    "failed_runs": {
      "total_time": "0",
      "count": "0"
    }
  },
  {
    "file": "tenderbake.ml",
    "title": "Alpha: Tenderbake low level repropose",
    "tags": [
      "alpha",
      "propose",
      "endorse",
      "preendorse",
      "tenderbake",
      "low_level",
      "repropose"
    ],
    "successful_runs": {
      "total_time": "23506865",
      "count": "1"
    },
    "failed_runs": {
      "total_time": "0",
      "count": "0"
    }
  },
  {
    "file": "light.ml",
    "title": "mode light no endpoint",
    "tags": [
      "client",
      "light",
      "cli"
    ],
    "successful_runs": {
      "total_time": "1084815",
      "count": "1"
    },
    "failed_runs": {
      "total_time": "0",
      "count": "0"
    }
  },
  {
    "file": "RPC_test.ml",
    "title": "Ithaca: (mode client) RPC regression tests: delegates",
    "tags": [
      "regression",
      "ithaca",
      "rpc",
      "client",
      "delegates"
    ],
    "successful_runs": {
      "total_time": "28390708",
      "count": "1"
    },
    "failed_runs": {
      "total_time": "0",
      "count": "0"
    }
  },
  {
    "file": "RPC_test.ml",
    "title": "Ithaca: (mode client) RPC regression tests: mempool",
    "tags": [
      "regression",
      "ithaca",
      "rpc",
      "client",
      "mempool"
    ],
    "successful_runs": {
      "total_time": "71152643",
      "count": "1"
    },
    "failed_runs": {
      "total_time": "0",
      "count": "0"
    }
  },
  {
    "file": "RPC_test.ml",
    "title": "Ithaca: (mode client) RPC tests: workers",
    "tags": [
      "ithaca",
      "rpc",
      "client",
      "workers"
    ],
    "successful_runs": {
      "total_time": "13545871",
      "count": "1"
    },
    "failed_runs": {
      "total_time": "0",
      "count": "0"
    }
  },
  {
    "file": "RPC_test.ml",
    "title": "Jakarta: (mode client) RPC tests: chain",
    "tags": [
      "jakarta",
      "rpc",
      "client",
      "chain"
    ],
    "successful_runs": {
      "total_time": "40206053",
      "count": "1"
    },
    "failed_runs": {
      "total_time": "0",
      "count": "0"
    }
  },
  {
    "file": "RPC_test.ml",
    "title": "Kathmandu: (mode client) RPC tests: chain",
    "tags": [
      "kathmandu",
      "rpc",
      "client",
      "chain"
    ],
    "successful_runs": {
      "total_time": "40364417",
      "count": "1"
    },
    "failed_runs": {
      "total_time": "0",
      "count": "0"
    }
  },
  {
    "file": "RPC_test.ml",
    "title": "Ithaca: (mode light) RPC regression tests: delegates",
    "tags": [
      "regression",
      "ithaca",
      "rpc",
      "light",
      "delegates"
    ],
    "successful_runs": {
      "total_time": "30245522",
      "count": "1"
    },
    "failed_runs": {
      "total_time": "0",
      "count": "0"
    }
  },
  {
    "file": "RPC_test.ml",
    "title": "Alpha: (mode light) RPC tests: network",
    "tags": [
      "alpha",
      "rpc",
      "light",
      "network"
    ],
    "successful_runs": {
      "total_time": "31125376",
      "count": "1"
    },
    "failed_runs": {
      "total_time": "0",
      "count": "0"
    }
  },
  {
    "file": "RPC_test.ml",
    "title": "Kathmandu: (mode light) RPC tests: misc_shell",
    "tags": [
      "kathmandu",
      "rpc",
      "light",
      "misc_shell"
    ],
    "successful_runs": {
      "total_time": "20059062",
      "count": "1"
    },
    "failed_runs": {
      "total_time": "0",
      "count": "0"
    }
  },
  {
    "file": "RPC_test.ml",
    "title": "Jakarta: (mode proxy) RPC regression tests: misc_protocol",
    "tags": [
      "regression",
      "jakarta",
      "rpc",
      "proxy",
      "misc_protocol"
    ],
    "successful_runs": {
      "total_time": "12233170",
      "count": "1"
    },
    "failed_runs": {
      "total_time": "0",
      "count": "0"
    }
  },
  {
    "file": "RPC_test.ml",
    "title": "Jakarta: (mode proxy) RPC regression tests: mempool",
    "tags": [
      "regression",
      "jakarta",
      "rpc",
      "proxy",
      "mempool"
    ],
    "successful_runs": {
      "total_time": "68397427",
      "count": "1"
    },
    "failed_runs": {
      "total_time": "0",
      "count": "0"
    }
  },
  {
    "file": "RPC_test.ml",
    "title": "Ithaca: (mode proxy) RPC tests: network",
    "tags": [
      "ithaca",
      "rpc",
      "proxy",
      "network"
    ],
    "successful_runs": {
      "total_time": "33877553",
      "count": "1"
    },
    "failed_runs": {
      "total_time": "0",
      "count": "0"
    }
  },
  {
    "file": "RPC_test.ml",
    "title": "Kathmandu: (mode proxy) RPC tests: misc_shell",
    "tags": [
      "kathmandu",
      "rpc",
      "proxy",
      "misc_shell"
    ],
    "successful_runs": {
      "total_time": "17115992",
      "count": "1"
    },
    "failed_runs": {
      "total_time": "0",
      "count": "0"
    }
  },
  {
    "file": "RPC_test.ml",
    "title": "Jakarta: (mode proxy_server_data_dir) RPC regression tests: votes",
    "tags": [
      "regression",
      "jakarta",
      "rpc",
      "proxy_server_data_dir",
      "votes"
    ],
    "successful_runs": {
      "total_time": "36064510",
      "count": "1"
    },
    "failed_runs": {
      "total_time": "0",
      "count": "0"
    }
  },
  {
    "file": "RPC_test.ml",
    "title": "Alpha: (mode proxy_server_rpc) RPC regression tests: contracts",
    "tags": [
      "regression",
      "alpha",
      "rpc",
      "proxy_server_rpc",
      "contracts"
    ],
    "successful_runs": {
      "total_time": "69973736",
      "count": "1"
    },
    "failed_runs": {
      "total_time": "0",
      "count": "0"
    }
  },
  {
    "file": "RPC_test.ml",
    "title": "Kathmandu: (mode proxy_server_rpc) RPC regression tests: delegates",
    "tags": [
      "regression",
      "kathmandu",
      "rpc",
      "proxy_server_rpc",
      "delegates"
    ],
    "successful_runs": {
      "total_time": "28790755",
      "count": "1"
    },
    "failed_runs": {
      "total_time": "0",
      "count": "0"
    }
  },
  {
    "file": "RPC_test.ml",
    "title": "Alpha: (mode proxy_server_rpc) RPC regression tests: misc_protocol",
    "tags": [
      "regression",
      "alpha",
      "rpc",
      "proxy_server_rpc",
      "misc_protocol"
    ],
    "successful_runs": {
      "total_time": "12593630",
      "count": "1"
    },
    "failed_runs": {
      "total_time": "0",
      "count": "0"
    }
  },
  {
    "file": "tx_rollup.ml",
    "title": "Kathmandu: RPC (tx_rollups, regression) - inbox merkle tree path",
    "tags": [
      "regression",
      "kathmandu",
      "tx_rollup",
      "rpc",
      "inbox",
      "merkle_tree_path"
    ],
    "successful_runs": {
      "total_time": "10913342",
      "count": "1"
    },
    "failed_runs": {
      "total_time": "0",
      "count": "0"
    }
  },
  {
    "file": "tx_rollup.ml",
    "title": "Jakarta: RPC (tx_rollups, regression) - inbox from the future",
    "tags": [
      "jakarta",
      "tx_rollup",
      "rpc",
      "inbox"
    ],
    "successful_runs": {
      "total_time": "12008363",
      "count": "1"
    },
    "failed_runs": {
      "total_time": "0",
      "count": "0"
    }
  },
  {
    "file": "tx_rollup.ml",
    "title": "Alpha: Submit maximum size inbox",
    "tags": [
      "regression",
      "alpha",
      "tx_rollup",
      "inbox",
      "client"
    ],
    "successful_runs": {
      "total_time": "140330630",
      "count": "1"
    },
    "failed_runs": {
      "total_time": "0",
      "count": "0"
    }
  },
  {
    "file": "tx_rollup.ml",
    "title": "Alpha: Submit a batch to an invalid rollup address should fail",
    "tags": [
      "regression",
      "alpha",
      "tx_rollup",
      "client",
      "fail",
      "batch"
    ],
    "successful_runs": {
      "total_time": "6418565",
      "count": "1"
    },
    "failed_runs": {
      "total_time": "0",
      "count": "0"
    }
  },
  {
    "file": "tx_rollup.ml",
    "title": "Kathmandu: Submit a finalize commitment operation without commitment",
    "tags": [
      "regression",
      "kathmandu",
      "tx_rollup",
      "client",
      "fail",
      "finalize"
    ],
    "successful_runs": {
      "total_time": "12050424",
      "count": "1"
    },
    "failed_runs": {
      "total_time": "0",
      "count": "0"
    }
  },
  {
    "file": "tx_rollup.ml",
    "title": "Alpha: Try to finalize a too recent commitment",
    "tags": [
      "regression",
      "alpha",
      "tx_rollup",
      "client",
      "fail",
      "finalize"
    ],
    "successful_runs": {
      "total_time": "17757185",
      "count": "1"
    },
    "failed_runs": {
      "total_time": "0",
      "count": "0"
    }
  },
  {
    "file": "tx_rollup.ml",
    "title": "Alpha: Submit from an originated contract should fail",
    "tags": [
      "alpha",
      "tx_rollup",
      "client"
    ],
    "successful_runs": {
      "total_time": "10972167",
      "count": "1"
    },
    "failed_runs": {
      "total_time": "0",
      "count": "0"
    }
  },
  {
    "file": "tx_rollup.ml",
    "title": "Jakarta: Submit from an originated contract should fail",
    "tags": [
      "jakarta",
      "tx_rollup",
      "client"
    ],
    "successful_runs": {
      "total_time": "10905499",
      "count": "1"
    },
    "failed_runs": {
      "total_time": "0",
      "count": "0"
    }
  },
  {
    "file": "tx_rollup.ml",
    "title": "Alpha: RPC (tx_rollup, regression) - rejection",
    "tags": [
      "regression",
      "alpha",
      "tx_rollup",
      "rejection"
    ],
    "successful_runs": {
      "total_time": "25669721",
      "count": "1"
    },
    "failed_runs": {
      "total_time": "0",
      "count": "0"
    }
  },
  {
    "file": "tx_rollup.ml",
    "title": "Alpha: wrong rejection",
    "tags": [
      "alpha",
      "tx_rollup",
      "rejection",
      "batch"
    ],
    "successful_runs": {
      "total_time": "23218621",
      "count": "1"
    },
    "failed_runs": {
      "total_time": "0",
      "count": "0"
    }
  },
  {
    "file": "tx_rollup.ml",
    "title": "Kathmandu: wrong rejection",
    "tags": [
      "kathmandu",
      "tx_rollup",
      "rejection",
      "batch"
    ],
    "successful_runs": {
      "total_time": "23211376",
      "count": "1"
    },
    "failed_runs": {
      "total_time": "0",
      "count": "0"
    }
  },
  {
    "file": "tx_rollup_node.ml",
    "title": "Alpha: TX_rollup: configuration",
    "tags": [
      "alpha",
      "tx_rollup",
      "configuration"
    ],
    "successful_runs": {
      "total_time": "7388951",
      "count": "1"
    },
    "failed_runs": {
      "total_time": "0",
      "count": "0"
    }
  },
  {
    "file": "tx_rollup_node.ml",
    "title": "Kathmandu: TX_rollup: test that the node refuses to start if not allowed to deposit",
    "tags": [
      "kathmandu",
      "tx_rollup",
      "node",
      "allow",
      "deposit"
    ],
    "successful_runs": {
      "total_time": "8551721",
      "count": "1"
    },
    "failed_runs": {
      "total_time": "0",
      "count": "0"
    }
  },
  {
    "file": "tx_rollup_node.ml",
    "title": "Kathmandu: TX_rollup: l2 to l2 transaction",
    "tags": [
      "kathmandu",
      "tx_rollup",
      "rollup",
      "internal",
      "transaction"
    ],
    "successful_runs": {
      "total_time": "27608698",
      "count": "1"
    },
    "failed_runs": {
      "total_time": "0",
      "count": "0"
    }
  },
  {
    "file": "tx_rollup_node.ml",
    "title": "Kathmandu: TX_rollup: L2 rollup node reorganization",
    "tags": [
      "kathmandu",
      "tx_rollup",
      "node",
      "reorganization"
    ],
    "successful_runs": {
      "total_time": "34906858",
      "count": "1"
    },
    "failed_runs": {
      "total_time": "0",
      "count": "0"
    }
  },
  {
    "file": "tx_rollup_node.ml",
    "title": "Jakarta: TX_rollup: dispatch withdrawals",
    "tags": [
      "jakarta",
      "tx_rollup",
      "dispatch",
      "withdrawals"
    ],
    "successful_runs": {
      "total_time": "42278568",
      "count": "1"
    },
    "failed_runs": {
      "total_time": "0",
      "count": "0"
    }
  },
  {
    "file": "tx_rollup_node.ml",
    "title": "Alpha: TX_rollup: single signer for everything",
    "tags": [
      "alpha",
      "tx_rollup",
      "dispatch",
      "withdrawals"
    ],
    "successful_runs": {
      "total_time": "42382188",
      "count": "1"
    },
    "failed_runs": {
      "total_time": "0",
      "count": "0"
    }
  },
  {
    "file": "tx_rollup_node.ml",
    "title": "Jakarta: TX_rollup: single signer for everything",
    "tags": [
      "jakarta",
      "tx_rollup",
      "dispatch",
      "withdrawals"
    ],
    "successful_runs": {
      "total_time": "42280827",
      "count": "1"
    },
    "failed_runs": {
      "total_time": "0",
      "count": "0"
    }
  },
  {
    "file": "tx_rollup_node.ml",
    "title": "Alpha: TX_rollup: catch-up on commitments",
    "tags": [
      "alpha",
      "tx_rollup",
      "node",
      "catch_up",
      "commitments"
    ],
    "successful_runs": {
      "total_time": "32302502",
      "count": "1"
    },
    "failed_runs": {
      "total_time": "0",
      "count": "0"
    }
  },
  {
    "file": "manager_operations.ml",
    "title": "Jakarta: Contract's body illtyped 1",
    "tags": [
      "jakarta",
      "precheck",
      "illtyped",
      "origination",
      "typing"
    ],
    "successful_runs": {
      "total_time": "22167851",
      "count": "1"
    },
    "failed_runs": {
      "total_time": "0",
      "count": "0"
    }
  },
  {
    "file": "manager_operations.ml",
    "title": "Kathmandu: Contract's body illtyped 2",
    "tags": [
      "kathmandu",
      "precheck",
      "illtyped",
      "origination",
      "typing"
    ],
    "successful_runs": {
      "total_time": "16444934",
      "count": "1"
    },
    "failed_runs": {
      "total_time": "0",
      "count": "0"
    }
  },
  {
    "file": "manager_operations.ml",
    "title": "Jakarta: Batch below block limit with each operation below limit",
    "tags": [
      "jakarta",
      "precheck",
      "batch",
      "gas"
    ],
    "successful_runs": {
      "total_time": "25037420",
      "count": "1"
    },
    "failed_runs": {
      "total_time": "0",
      "count": "0"
    }
  },
  {
    "file": "manager_operations.ml",
    "title": "Jakarta: Batch below block limit with operations over limit",
    "tags": [
      "jakarta",
      "precheck",
      "batch",
      "gas",
      "op_gas"
    ],
    "successful_runs": {
      "total_time": "30359020",
      "count": "1"
    },
    "failed_runs": {
      "total_time": "0",
      "count": "0"
    }
  },
  {
    "file": "manager_operations.ml",
    "title": "Alpha: Batch over block limit with operations below limit",
    "tags": [
      "alpha",
      "precheck",
      "batch",
      "gas",
      "block_gas"
    ],
    "successful_runs": {
      "total_time": "24081845",
      "count": "1"
    },
    "failed_runs": {
      "total_time": "0",
      "count": "0"
    }
  },
  {
    "file": "manager_operations.ml",
    "title": "Kathmandu: Simple revelation with a wrong public key",
    "tags": [
      "kathmandu",
      "reveal",
      "revelation",
      "batch"
    ],
    "successful_runs": {
      "total_time": "30221580",
      "count": "1"
    },
    "failed_runs": {
      "total_time": "0",
      "count": "0"
    }
  },
  {
    "file": "manager_operations.ml",
    "title": "Jakarta: Simple revelation with a wrong public key",
    "tags": [
      "jakarta",
      "reveal",
      "revelation",
      "batch"
    ],
    "successful_runs": {
      "total_time": "33876116",
      "count": "1"
    },
    "failed_runs": {
      "total_time": "0",
      "count": "0"
    }
  },
  {
    "file": "manager_operations.ml",
    "title": "Alpha: Simple revelation with something that is not a public key",
    "tags": [
      "alpha",
      "reveal",
      "revelation"
    ],
    "successful_runs": {
      "total_time": "30005025",
      "count": "1"
    },
    "failed_runs": {
      "total_time": "0",
      "count": "0"
    }
  },
  {
    "file": "manager_operations.ml",
    "title": "Jakarta: Simple transfer not enough balance to make transfer",
    "tags": [
      "jakarta",
      "transaction",
      "transfer"
    ],
    "successful_runs": {
      "total_time": "28568665",
      "count": "1"
    },
    "failed_runs": {
      "total_time": "0",
      "count": "0"
    }
  },
  {
    "file": "manager_operations.ml",
    "title": "Jakarta: Simple transfer counter in the future",
    "tags": [
      "jakarta",
      "transaction",
      "transfer"
    ],
    "successful_runs": {
      "total_time": "24070250",
      "count": "1"
    },
    "failed_runs": {
      "total_time": "0",
      "count": "0"
    }
  },
  {
    "file": "manager_operations.ml",
    "title": "Kathmandu: Simple transfer with wrong signature",
    "tags": [
      "kathmandu",
      "transaction",
      "transfer"
    ],
    "successful_runs": {
      "total_time": "22855391",
      "count": "1"
    },
    "failed_runs": {
      "total_time": "0",
      "count": "0"
    }
  },
  {
    "file": "manager_operations.ml",
    "title": "Kathmandu: Test simple transfer of the whole balance",
    "tags": [
      "kathmandu",
      "transaction",
      "transfer"
    ],
    "successful_runs": {
      "total_time": "36631550",
      "count": "1"
    },
    "failed_runs": {
      "total_time": "0",
      "count": "0"
    }
  },
  {
    "file": "manager_operations.ml",
    "title": "Ithaca: Test successive injections with same manager (no operation precheck)",
    "tags": [
      "ithaca",
      "transaction",
      "transfer",
      "counters",
      "no_operation_precheck"
    ],
    "successful_runs": {
      "total_time": "32406218",
      "count": "1"
    },
    "failed_runs": {
      "total_time": "0",
      "count": "0"
    }
  },
  {
    "file": "manager_operations.ml",
    "title": "Ithaca: Smart contract call that loops/fails with 'not enough gas' at exec",
    "tags": [
      "ithaca",
      "simple_contract_calls",
      "smart",
      "contract",
      "call"
    ],
    "successful_runs": {
      "total_time": "25655478",
      "count": "1"
    },
    "failed_runs": {
      "total_time": "0",
      "count": "0"
    }
  },
  {
    "file": "manager_operations.ml",
    "title": "Jakarta: Deserialization of transfer ticket",
    "tags": [
      "jakarta",
      "precheck",
      "deserialization",
      "gas",
      "transfer_ticket",
      "tx_rollup",
      "canary"
    ],
    "successful_runs": {
      "total_time": "24651441",
      "count": "1"
    },
    "failed_runs": {
      "total_time": "0",
      "count": "0"
    }
  },
  {
    "file": "replace_by_fees.ml",
    "title": "Alpha: Second op's fees are below threshold by 1 mutez",
    "tags": [
      "alpha",
      "replace",
      "fee",
      "manager"
    ],
    "successful_runs": {
      "total_time": "31388231",
      "count": "1"
    },
    "failed_runs": {
      "total_time": "0",
      "count": "0"
    }
  },
  {
    "file": "replace_by_fees.ml",
    "title": "Alpha: Second op's fees are equal to replacement fees threshold",
    "tags": [
      "alpha",
      "replace",
      "fee",
      "manager"
    ],
    "successful_runs": {
      "total_time": "27842169",
      "count": "1"
    },
    "failed_runs": {
      "total_time": "0",
      "count": "0"
    }
  },
  {
    "file": "replace_by_fees.ml",
    "title": "Jakarta: Second op's gas descreased by 1, but still no enough replacement fees",
    "tags": [
      "jakarta",
      "replace",
      "fee",
      "manager"
    ],
    "successful_runs": {
      "total_time": "24139192",
      "count": "1"
    },
    "failed_runs": {
      "total_time": "0",
      "count": "0"
    }
  },
  {
    "file": "replace_by_fees.ml",
    "title": "Alpha: Second op's gas descreased by 1, but still no enough replacement fees",
    "tags": [
      "alpha",
      "replace",
      "fee",
      "manager"
    ],
    "successful_runs": {
      "total_time": "26928207",
      "count": "1"
    },
    "failed_runs": {
      "total_time": "0",
      "count": "0"
    }
  },
  {
    "file": "replace_by_fees.ml",
    "title": "Kathmandu: Op2's gas/fee is more important, but fees are not higher than max",
    "tags": [
      "kathmandu",
      "replace",
      "fee",
      "manager"
    ],
    "successful_runs": {
      "total_time": "24509403",
      "count": "1"
    },
    "failed_runs": {
      "total_time": "0",
      "count": "0"
    }
  },
  {
    "file": "replace_by_fees.ml",
    "title": "Alpha: First operation not applied, second one applied with default fees",
    "tags": [
      "alpha",
      "replace",
      "fee",
      "manager"
    ],
    "successful_runs": {
      "total_time": "22579322",
      "count": "1"
    },
    "failed_runs": {
      "total_time": "0",
      "count": "0"
    }
  },
  {
    "file": "replace_by_fees.ml",
    "title": "Ithaca: Replacing a batched op is possible if enough fees are provided",
    "tags": [
      "ithaca",
      "replace",
      "fee",
      "manager"
    ],
    "successful_runs": {
      "total_time": "34339997",
      "count": "1"
    },
    "failed_runs": {
      "total_time": "0",
      "count": "0"
    }
  },
  {
    "file": "sc_rollup.ml",
    "title": "Alpha: pushing messages in the inbox - check inbox size",
    "tags": [
      "regression",
      "alpha",
      "sc_rollup",
      "inbox"
    ],
    "successful_runs": {
      "total_time": "29878707",
      "count": "1"
    },
    "failed_runs": {
      "total_time": "0",
      "count": "0"
    }
  },
  {
    "file": "sc_rollup.ml",
    "title": "Alpha: observing the correct maintenance of inbox in the rollup node (too_many_messages)",
    "tags": [
      "regression",
      "alpha",
      "sc_rollup",
      "inbox",
      "node",
      "too_many_messages"
    ],
    "successful_runs": {
      "total_time": "53674631",
      "count": "1"
    },
    "failed_runs": {
      "total_time": "0",
      "count": "0"
    }
  },
  {
    "file": "sc_rollup.ml",
    "title": "Alpha: Lists known aliases in the client",
    "tags": [
      "alpha",
      "sc_rollup",
      "run",
      "client"
    ],
    "successful_runs": {
      "total_time": "8590155",
      "count": "1"
    },
    "failed_runs": {
      "total_time": "0",
      "count": "0"
    }
  },
  {
    "file": "runtime_script_failure.ml",
    "title": "Alpha: Runtime Script Failure: client force",
    "tags": [
      "alpha",
      "runtime_script_failure"
    ],
    "successful_runs": {
      "total_time": "10976737",
      "count": "1"
    },
    "failed_runs": {
      "total_time": "0",
      "count": "0"
    }
  },
  {
    "file": "runtime_script_failure.ml",
    "title": "Ithaca: Runtime Script Failure: client force",
    "tags": [
      "ithaca",
      "runtime_script_failure"
    ],
    "successful_runs": {
      "total_time": "10708625",
      "count": "1"
    },
    "failed_runs": {
      "total_time": "0",
      "count": "0"
    }
  },
  {
    "file": "sapling.ml",
    "title": "Alpha: insufficient_funds.transfer",
    "tags": [
      "alpha",
      "sapling"
    ],
    "successful_runs": {
      "total_time": "19284468",
      "count": "1"
    },
    "failed_runs": {
      "total_time": "0",
      "count": "0"
    }
  },
  {
    "file": "client_run_view.ml",
    "title": "Jakarta: Run view `mul_v` with 10",
    "tags": [
      "jakarta",
      "client",
      "michelson",
      "view"
    ],
    "successful_runs": {
      "total_time": "3285226",
      "count": "1"
    },
    "failed_runs": {
      "total_time": "0",
      "count": "0"
    }
  },
  {
    "file": "client_run_view.ml",
    "title": "Alpha: Run view calling another contract",
    "tags": [
      "alpha",
      "client",
      "michelson",
      "view"
    ],
    "successful_runs": {
      "total_time": "7852258",
      "count": "1"
    },
    "failed_runs": {
      "total_time": "0",
      "count": "0"
    }
  },
  {
    "file": "client_run_view.ml",
    "title": "Kathmandu: Run view on implicit account",
    "tags": [
      "kathmandu",
      "client",
      "michelson",
      "view"
    ],
    "successful_runs": {
      "total_time": "2132620",
      "count": "1"
    },
    "failed_runs": {
      "total_time": "0",
      "count": "0"
    }
  },
  {
    "file": "client_run_view.ml",
    "title": "Kathmandu: Run on non existing view `unknown`",
    "tags": [
      "kathmandu",
      "client",
      "michelson",
      "view"
    ],
    "successful_runs": {
      "total_time": "3472381",
      "count": "1"
    },
    "failed_runs": {
      "total_time": "0",
      "count": "0"
    }
  },
  {
    "file": "governance_dictator.ml",
    "title": "Alpha: governance dictator (mainnet, exploration)",
    "tags": [
      "alpha",
      "amendment",
      "mainnet",
      "exploration"
    ],
    "successful_runs": {
      "total_time": "33289484",
      "count": "1"
    },
    "failed_runs": {
      "total_time": "0",
      "count": "0"
    }
  },
  {
    "file": "test_contract_bls12_381.ml",
    "title": "Alpha: Bls12_381 contract primitives, g1: store",
    "tags": [
      "regression",
      "alpha",
      "michelson",
      "crypto",
      "contract",
      "bls12_381",
      "g1",
      "store"
    ],
    "successful_runs": {
      "total_time": "14111998",
      "count": "1"
    },
    "failed_runs": {
      "total_time": "0",
      "count": "0"
    }
  },
  {
    "file": "test_contract_bls12_381.ml",
    "title": "Alpha: Bls12_381 contract primitives: pairing_check(pos, pos)",
    "tags": [
      "regression",
      "alpha",
      "michelson",
      "crypto",
      "contract",
      "bls12_381",
      "pairing_check"
    ],
    "successful_runs": {
      "total_time": "105300246",
      "count": "1"
    },
    "failed_runs": {
      "total_time": "0",
      "count": "0"
    }
  }
]